(footprint "TO-220-7_P2.54x5.1mm_StaggerOdd_Lead8.025mm_TabDown"
	(version 20240108)
	(generator "kicad-footprint-generator")
	(layer "F.Cu")
	(descr "TO-220-7, Horizontal, RM 1.27mm, Heptawatt-H, staggered type-1, see https://www.mouser.com/datasheet/2/389/cd00000076-1795191.pdf#page=14, https://www.jedec.org/system/files/docs/TO-220L-01.pdf")
	(tags "TO-220-7 Horizontal RM 1.27mm Heptawatt-H staggered type-1")
	(property "Reference" "REF**"
		(at 3.81 -24.595 0)
		(layer "F.SilkS")
		(effects
			(font
				(size 1 1)
				(thickness 0.15)
			)
		)
	)
	(property "Value" "TO-220-7_P2.54x5.1mm_StaggerOdd_Lead8.025mm_TabDown"
		(at 3.81 1.9 0)
		(layer "F.Fab")
		(effects
			(font
				(size 1 1)
				(thickness 0.15)
			)
		)
	)
	(attr through_hole)
	(fp_line
		(start -1.39 -23.595)
		(end -1.39 -7.906)
		(stroke
			(width 0.12)
			(type solid)
		)
		(layer "F.SilkS")
	)
	(fp_line
		(start -1.39 -23.595)
		(end 9.01 -23.595)
		(stroke
			(width 0.12)
			(type solid)
		)
		(layer "F.SilkS")
	)
	(fp_line
		(start -1.39 -7.906)
		(end 9.01 -7.906)
		(stroke
			(width 0.12)
			(type solid)
		)
		(layer "F.SilkS")
	)
	(fp_line
		(start 0 -7.906)
		(end 0 -1.05)
		(stroke
			(width 0.12)
			(type solid)
		)
		(layer "F.SilkS")
	)
	(fp_line
		(start 1.27 -7.906)
		(end 1.27 -6.166)
		(stroke
			(width 0.12)
			(type solid)
		)
		(layer "F.SilkS")
	)
	(fp_line
		(start 2.54 -7.906)
		(end 2.54 -1.065)
		(stroke
			(width 0.12)
			(type solid)
		)
		(layer "F.SilkS")
	)
	(fp_line
		(start 3.81 -7.906)
		(end 3.81 -6.166)
		(stroke
			(width 0.12)
			(type solid)
		)
		(layer "F.SilkS")
	)
	(fp_line
		(start 5.08 -7.906)
		(end 5.08 -1.065)
		(stroke
			(width 0.12)
			(type solid)
		)
		(layer "F.SilkS")
	)
	(fp_line
		(start 6.35 -7.906)
		(end 6.35 -6.166)
		(stroke
			(width 0.12)
			(type solid)
		)
		(layer "F.SilkS")
	)
	(fp_line
		(start 7.62 -7.906)
		(end 7.62 -1.065)
		(stroke
			(width 0.12)
			(type solid)
		)
		(layer "F.SilkS")
	)
	(fp_line
		(start 9.01 -23.595)
		(end 9.01 -7.906)
		(stroke
			(width 0.12)
			(type solid)
		)
		(layer "F.SilkS")
	)
	(fp_line
		(start -1.52 -23.73)
		(end -1.52 1.16)
		(stroke
			(width 0.05)
			(type solid)
		)
		(layer "F.CrtYd")
	)
	(fp_line
		(start -1.52 1.16)
		(end 9.14 1.16)
		(stroke
			(width 0.05)
			(type solid)
		)
		(layer "F.CrtYd")
	)
	(fp_line
		(start 9.14 -23.73)
		(end -1.52 -23.73)
		(stroke
			(width 0.05)
			(type solid)
		)
		(layer "F.CrtYd")
	)
	(fp_line
		(start 9.14 1.16)
		(end 9.14 -23.73)
		(stroke
			(width 0.05)
			(type solid)
		)
		(layer "F.CrtYd")
	)
	(fp_line
		(start -1.27 -23.475)
		(end 8.89 -23.475)
		(stroke
			(width 0.1)
			(type solid)
		)
		(layer "F.Fab")
	)
	(fp_line
		(start -1.27 -17.175)
		(end -1.27 -23.475)
		(stroke
			(width 0.1)
			(type solid)
		)
		(layer "F.Fab")
	)
	(fp_line
		(start -1.27 -17.175)
		(end 8.89 -17.175)
		(stroke
			(width 0.1)
			(type solid)
		)
		(layer "F.Fab")
	)
	(fp_line
		(start -1.27 -8.025)
		(end -1.27 -17.175)
		(stroke
			(width 0.1)
			(type solid)
		)
		(layer "F.Fab")
	)
	(fp_line
		(start 0 -8.025)
		(end 0 0)
		(stroke
			(width 0.1)
			(type solid)
		)
		(layer "F.Fab")
	)
	(fp_line
		(start 1.27 -8.025)
		(end 1.27 -5.1)
		(stroke
			(width 0.1)
			(type solid)
		)
		(layer "F.Fab")
	)
	(fp_line
		(start 2.54 -8.025)
		(end 2.54 0)
		(stroke
			(width 0.1)
			(type solid)
		)
		(layer "F.Fab")
	)
	(fp_line
		(start 3.81 -8.025)
		(end 3.81 -5.1)
		(stroke
			(width 0.1)
			(type solid)
		)
		(layer "F.Fab")
	)
	(fp_line
		(start 5.08 -8.025)
		(end 5.08 0)
		(stroke
			(width 0.1)
			(type solid)
		)
		(layer "F.Fab")
	)
	(fp_line
		(start 6.35 -8.025)
		(end 6.35 -5.1)
		(stroke
			(width 0.1)
			(type solid)
		)
		(layer "F.Fab")
	)
	(fp_line
		(start 7.62 -8.025)
		(end 7.62 0)
		(stroke
			(width 0.1)
			(type solid)
		)
		(layer "F.Fab")
	)
	(fp_line
		(start 8.89 -23.475)
		(end 8.89 -17.175)
		(stroke
			(width 0.1)
			(type solid)
		)
		(layer "F.Fab")
	)
	(fp_line
		(start 8.89 -17.175)
		(end 8.89 -8.025)
		(stroke
			(width 0.1)
			(type solid)
		)
		(layer "F.Fab")
	)
	(fp_line
		(start 8.89 -8.025)
		(end -1.27 -8.025)
		(stroke
			(width 0.1)
			(type solid)
		)
		(layer "F.Fab")
	)
	(fp_circle
		(center 3.81 -20.675)
		(end 5.685 -20.675)
		(stroke
			(width 0.1)
			(type solid)
		)
		(fill none)
		(layer "F.Fab")
	)
	(fp_text user "${REFERENCE}"
		(at 3.81 -24.595 0)
		(layer "F.Fab")
		(effects
			(font
				(size 1 1)
				(thickness 0.15)
			)
		)
	)
	(pad "" np_thru_hole circle
		(at 3.81 -20.675)
		(size 3.5 3.5)
		(drill 3.5)
		(layers "*.Cu" "*.Mask")
	)
	(pad "1" thru_hole rect
		(at 0 0)
		(size 1.8 1.8)
		(drill 1.1)
		(layers "*.Cu" "*.Mask")
		(remove_unused_layers no)
	)
	(pad "2" thru_hole circle
		(at 1.27 -5.1)
		(size 1.8 1.8)
		(drill 1.1)
		(layers "*.Cu" "*.Mask")
		(remove_unused_layers no)
	)
	(pad "3" thru_hole circle
		(at 2.54 0)
		(size 1.8 1.8)
		(drill 1.1)
		(layers "*.Cu" "*.Mask")
		(remove_unused_layers no)
	)
	(pad "4" thru_hole circle
		(at 3.81 -5.1)
		(size 1.8 1.8)
		(drill 1.1)
		(layers "*.Cu" "*.Mask")
		(remove_unused_layers no)
	)
	(pad "5" thru_hole circle
		(at 5.08 0)
		(size 1.8 1.8)
		(drill 1.1)
		(layers "*.Cu" "*.Mask")
		(remove_unused_layers no)
	)
	(pad "6" thru_hole circle
		(at 6.35 -5.1)
		(size 1.8 1.8)
		(drill 1.1)
		(layers "*.Cu" "*.Mask")
		(remove_unused_layers no)
	)
	(pad "7" thru_hole circle
		(at 7.62 0)
		(size 1.8 1.8)
		(drill 1.1)
		(layers "*.Cu" "*.Mask")
		(remove_unused_layers no)
	)
	(model "${KICAD8_3DMODEL_DIR}/Package_TO_SOT_THT.3dshapes/TO-220-7_P2.54x5.1mm_StaggerOdd_Lead8.025mm_TabDown.wrl"
		(offset
			(xyz 0 0 0)
		)
		(scale
			(xyz 1 1 1)
		)
		(rotate
			(xyz 0 0 0)
		)
	)
)
