(footprint "TO-220-5_Horizontal_TabDown"
	(version 20240108)
	(generator "pcbnew")
	(generator_version "8.0")
	(layer "F.Cu")
	(descr "TO-220-5, Horizontal, RM 1.7mm, Pentawatt, see http://www.analog.com/media/en/package-pcb-resources/package/pkg_pdf/ltc-legacy-to-220/to-220_5_05-08-1421_straight_lead.pdf")
	(tags "TO-220-5 Horizontal RM 1.7mm Pentawatt")
	(property "Reference" "REF**"
		(at 3.4 -20.58 0)
		(layer "F.SilkS")
		(uuid "8feaecf7-dd99-47ca-84e8-272eebbeab88")
		(effects
			(font
				(size 1 1)
				(thickness 0.15)
			)
		)
	)
	(property "Value" "TO-220-5_Horizontal_TabDown"
		(at 3.4 1.9 0)
		(layer "F.Fab")
		(uuid "cd1c3ebd-9017-4ca9-a48f-62e48fbb1257")
		(effects
			(font
				(size 1 1)
				(thickness 0.15)
			)
		)
	)
	(property "Footprint" ""
		(at 0 0 0)
		(layer "F.Fab")
		(hide yes)
		(uuid "e3d05d49-223c-498d-918b-e1fd9972dcc4")
		(effects
			(font
				(size 1.27 1.27)
				(thickness 0.15)
			)
		)
	)
	(property "Datasheet" ""
		(at 0 0 0)
		(layer "F.Fab")
		(hide yes)
		(uuid "bd7ea0e1-56de-4901-a305-15ae43f401ce")
		(effects
			(font
				(size 1.27 1.27)
				(thickness 0.15)
			)
		)
	)
	(property "Description" ""
		(at 0 0 0)
		(layer "F.Fab")
		(hide yes)
		(uuid "0ddc1093-36e2-4265-b96c-e07c472f6a11")
		(effects
			(font
				(size 1.27 1.27)
				(thickness 0.15)
			)
		)
	)
	(attr through_hole)
	(fp_line
		(start -1.721 -19.58)
		(end -1.721 -3.69)
		(stroke
			(width 0.12)
			(type solid)
		)
		(layer "F.SilkS")
		(uuid "f3d753a5-c468-46e8-bdd5-4d6e781bf704")
	)
	(fp_line
		(start -1.721 -19.58)
		(end 8.52 -19.58)
		(stroke
			(width 0.12)
			(type solid)
		)
		(layer "F.SilkS")
		(uuid "60bd5519-0e27-422a-b532-23020df27b4a")
	)
	(fp_line
		(start -1.721 -3.69)
		(end 8.52 -3.69)
		(stroke
			(width 0.12)
			(type solid)
		)
		(layer "F.SilkS")
		(uuid "f5af63c5-d4bd-4095-a4ca-1b49477111b4")
	)
	(fp_line
		(start 0 -3.69)
		(end 0 -1.05)
		(stroke
			(width 0.12)
			(type solid)
		)
		(layer "F.SilkS")
		(uuid "4e9bbd0e-1ce8-4481-a8c3-6e1d02d9fdcd")
	)
	(fp_line
		(start 1.7 -3.69)
		(end 1.7 -1.05)
		(stroke
			(width 0.12)
			(type solid)
		)
		(layer "F.SilkS")
		(uuid "19b0ee41-6565-4423-80dc-184a6b92f57e")
	)
	(fp_line
		(start 3.4 -3.69)
		(end 3.4 -1.05)
		(stroke
			(width 0.12)
			(type solid)
		)
		(layer "F.SilkS")
		(uuid "42cde59e-72e8-43d6-bec1-05faf347052b")
	)
	(fp_line
		(start 5.1 -3.69)
		(end 5.1 -1.05)
		(stroke
			(width 0.12)
			(type solid)
		)
		(layer "F.SilkS")
		(uuid "43be8466-6e0b-48cb-9c96-ee94095a7e6a")
	)
	(fp_line
		(start 6.8 -3.69)
		(end 6.8 -1.05)
		(stroke
			(width 0.12)
			(type solid)
		)
		(layer "F.SilkS")
		(uuid "af45d57c-cb0d-4b80-81a4-63136de59ffc")
	)
	(fp_line
		(start 8.52 -19.58)
		(end 8.52 -3.69)
		(stroke
			(width 0.12)
			(type solid)
		)
		(layer "F.SilkS")
		(uuid "73be15e6-f328-410f-ab8b-e9c10cd1a408")
	)
	(fp_line
		(start -1.85 -19.71)
		(end -1.85 1.15)
		(stroke
			(width 0.05)
			(type solid)
		)
		(layer "F.CrtYd")
		(uuid "07c38d8b-451e-4258-9ee6-0890785650b6")
	)
	(fp_line
		(start -1.85 1.15)
		(end 8.65 1.15)
		(stroke
			(width 0.05)
			(type solid)
		)
		(layer "F.CrtYd")
		(uuid "3642cfc3-309f-4580-a429-adfdbd7adf58")
	)
	(fp_line
		(start 8.65 -19.71)
		(end -1.85 -19.71)
		(stroke
			(width 0.05)
			(type solid)
		)
		(layer "F.CrtYd")
		(uuid "a4d7ec60-e658-4b29-a7c9-0c95c8fad921")
	)
	(fp_line
		(start 8.65 1.15)
		(end 8.65 -19.71)
		(stroke
			(width 0.05)
			(type solid)
		)
		(layer "F.CrtYd")
		(uuid "29ce9c64-2c3a-4143-a818-5fe732ab7736")
	)
	(fp_line
		(start -1.6 -19.46)
		(end 8.4 -19.46)
		(stroke
			(width 0.1)
			(type solid)
		)
		(layer "F.Fab")
		(uuid "e34c3a2c-8ec3-4472-849c-5ae096caf87c")
	)
	(fp_line
		(start -1.6 -13.06)
		(end -1.6 -19.46)
		(stroke
			(width 0.1)
			(type solid)
		)
		(layer "F.Fab")
		(uuid "d7495c79-40cd-4610-b582-577eaadcbce5")
	)
	(fp_line
		(start -1.6 -13.06)
		(end 8.4 -13.06)
		(stroke
			(width 0.1)
			(type solid)
		)
		(layer "F.Fab")
		(uuid "85ba2f7f-3a11-4af4-99d0-6f085a015fc2")
	)
	(fp_line
		(start -1.6 -3.81)
		(end -1.6 -13.06)
		(stroke
			(width 0.1)
			(type solid)
		)
		(layer "F.Fab")
		(uuid "4bee73ab-b714-41e1-8565-2e0287b0579c")
	)
	(fp_line
		(start 0 -3.81)
		(end 0 0)
		(stroke
			(width 0.1)
			(type solid)
		)
		(layer "F.Fab")
		(uuid "a98cdee3-d21b-44c4-aaca-8696617d6686")
	)
	(fp_line
		(start 1.7 -3.81)
		(end 1.7 0)
		(stroke
			(width 0.1)
			(type solid)
		)
		(layer "F.Fab")
		(uuid "6f8d84ce-e8a6-47ee-b27a-7e04751362a1")
	)
	(fp_line
		(start 3.4 -3.81)
		(end 3.4 0)
		(stroke
			(width 0.1)
			(type solid)
		)
		(layer "F.Fab")
		(uuid "0adc78db-0be9-41d2-8833-a41373af3746")
	)
	(fp_line
		(start 5.1 -3.81)
		(end 5.1 0)
		(stroke
			(width 0.1)
			(type solid)
		)
		(layer "F.Fab")
		(uuid "93709a6a-5ab0-4dcf-878a-983ab3fc5235")
	)
	(fp_line
		(start 6.8 -3.81)
		(end 6.8 0)
		(stroke
			(width 0.1)
			(type solid)
		)
		(layer "F.Fab")
		(uuid "e93b6b74-623a-4ae4-a99d-a577429b08f8")
	)
	(fp_line
		(start 8.4 -19.46)
		(end 8.4 -13.06)
		(stroke
			(width 0.1)
			(type solid)
		)
		(layer "F.Fab")
		(uuid "48008170-8b27-47a9-a743-37f60c99cd64")
	)
	(fp_line
		(start 8.4 -13.06)
		(end -1.6 -13.06)
		(stroke
			(width 0.1)
			(type solid)
		)
		(layer "F.Fab")
		(uuid "ae2d243d-47b0-49dc-a96c-679b26413789")
	)
	(fp_line
		(start 8.4 -13.06)
		(end 8.4 -3.81)
		(stroke
			(width 0.1)
			(type solid)
		)
		(layer "F.Fab")
		(uuid "ed02fd2c-2d1b-4dc9-8b92-1c6ca52211f2")
	)
	(fp_line
		(start 8.4 -3.81)
		(end -1.6 -3.81)
		(stroke
			(width 0.1)
			(type solid)
		)
		(layer "F.Fab")
		(uuid "95e856a9-a33f-41da-9373-60b41b35fc01")
	)
	(fp_circle
		(center 3.4 -16.66)
		(end 5.25 -16.66)
		(stroke
			(width 0.1)
			(type solid)
		)
		(fill none)
		(layer "F.Fab")
		(uuid "2398cd74-b340-4502-9f64-1ca90fdc43ca")
	)
	(fp_text user "${REFERENCE}"
		(at 3.4 -20.58 0)
		(layer "F.Fab")
		(uuid "7b7cbbc0-b241-4742-9281-971334c28c76")
		(effects
			(font
				(size 1 1)
				(thickness 0.15)
			)
		)
	)
	(pad "" np_thru_hole circle
		(at 3.4 -16.66)
		(size 3.5 3.5)
		(drill 3.5)
		(layers "*.Cu" "*.Mask")
		(uuid "11ed0d76-41f1-4c0e-879d-aa548eb728bd")
	)
	(pad "1" thru_hole rect
		(at 0 0)
		(size 1.275 1.8)
		(drill 1.1)
		(layers "*.Cu" "*.Mask")
		(remove_unused_layers no)
		(uuid "42ab31ef-e1e6-4a5e-9daa-571209ea0cdb")
	)
	(pad "2" thru_hole oval
		(at 1.7 0)
		(size 1.275 1.8)
		(drill 1.1)
		(layers "*.Cu" "*.Mask")
		(remove_unused_layers no)
		(uuid "0a785cad-d609-45b0-a276-ed8b584843e3")
	)
	(pad "3" thru_hole oval
		(at 3.4 0)
		(size 1.275 1.8)
		(drill 1.1)
		(layers "*.Cu" "*.Mask")
		(remove_unused_layers no)
		(uuid "f2a41f72-d3b3-4ae6-b5ac-8bf85b32a317")
	)
	(pad "4" thru_hole oval
		(at 5.1 0)
		(size 1.275 1.8)
		(drill 1.1)
		(layers "*.Cu" "*.Mask")
		(remove_unused_layers no)
		(uuid "afb3ef15-5dba-42ec-bffb-ad78f723d551")
	)
	(pad "5" thru_hole oval
		(at 6.8 0)
		(size 1.275 1.8)
		(drill 1.1)
		(layers "*.Cu" "*.Mask")
		(remove_unused_layers no)
		(uuid "c15ce294-81b5-4e71-9abe-5dff4d7ffd33")
	)
	(model "${KICAD8_3DMODEL_DIR}/Package_TO_SOT_THT.3dshapes/TO-220-5_Horizontal_TabDown.wrl"
		(offset
			(xyz 0 0 0)
		)
		(scale
			(xyz 1 1 1)
		)
		(rotate
			(xyz 0 0 0)
		)
	)
)
