(footprint "TO-220F-5_P3.4x3.7mm_StaggerEven_Lead3.5mm_Vertical"
	(version 20240108)
	(generator "pcbnew")
	(generator_version "8.0")
	(layer "F.Cu")
	(descr "TO-220F-5, Vertical, RM 1.7mm, PentawattF, staggered type-2")
	(tags "TO-220F-5 Vertical RM 1.7mm PentawattF staggered type-2")
	(property "Reference" "REF**"
		(at 3.4 -5.62 0)
		(layer "F.SilkS")
		(uuid "cc530957-619f-4faa-88df-76c9d2f79184")
		(effects
			(font
				(size 1 1)
				(thickness 0.15)
			)
		)
	)
	(property "Value" "TO-220F-5_P3.4x3.7mm_StaggerEven_Lead3.5mm_Vertical"
		(at 3.4 5.85 0)
		(layer "F.Fab")
		(uuid "b159347e-500b-4171-b39c-e0aba9533161")
		(effects
			(font
				(size 1 1)
				(thickness 0.15)
			)
		)
	)
	(property "Footprint" ""
		(at 0 0 0)
		(unlocked yes)
		(layer "F.Fab")
		(hide yes)
		(uuid "8d84a3ae-02f9-4d64-a847-8b720a1e7e78")
		(effects
			(font
				(size 1.27 1.27)
				(thickness 0.15)
			)
		)
	)
	(property "Datasheet" ""
		(at 0 0 0)
		(unlocked yes)
		(layer "F.Fab")
		(hide yes)
		(uuid "13ecae2a-9942-4789-8d35-66ea393dd832")
		(effects
			(font
				(size 1.27 1.27)
				(thickness 0.15)
			)
		)
	)
	(property "Description" ""
		(at 0 0 0)
		(unlocked yes)
		(layer "F.Fab")
		(hide yes)
		(uuid "4e372ec5-b610-4009-b784-63752cae6bc6")
		(effects
			(font
				(size 1.27 1.27)
				(thickness 0.15)
			)
		)
	)
	(attr through_hole)
	(fp_line
		(start -1.85 -4.62)
		(end -1.85 0.321)
		(stroke
			(width 0.12)
			(type solid)
		)
		(layer "F.SilkS")
		(uuid "22c4a6a2-8c21-4735-862d-f0a9f6a6c55a")
	)
	(fp_line
		(start -1.85 -4.62)
		(end 8.65 -4.62)
		(stroke
			(width 0.12)
			(type solid)
		)
		(layer "F.SilkS")
		(uuid "8ba91839-dbea-45b8-9a3e-6935f396c985")
	)
	(fp_line
		(start -1.85 -1.861)
		(end 8.65 -1.861)
		(stroke
			(width 0.12)
			(type solid)
		)
		(layer "F.SilkS")
		(uuid "500a01ff-0512-4ab0-bd82-debf229661b2")
	)
	(fp_line
		(start -1.85 0.321)
		(end -1.05 0.321)
		(stroke
			(width 0.12)
			(type solid)
		)
		(layer "F.SilkS")
		(uuid "fd21e409-520e-4d97-b668-bff4820b2aa9")
	)
	(fp_line
		(start 1.05 0.321)
		(end 2.369 0.321)
		(stroke
			(width 0.12)
			(type solid)
		)
		(layer "F.SilkS")
		(uuid "c9f02a2d-bd10-4ee4-933f-918bfb422f1d")
	)
	(fp_line
		(start 1.55 -4.62)
		(end 1.55 -1.861)
		(stroke
			(width 0.12)
			(type solid)
		)
		(layer "F.SilkS")
		(uuid "71434731-de8d-403c-8b4f-6a1270464ee9")
	)
	(fp_line
		(start 1.7 0.321)
		(end 1.7 2.635)
		(stroke
			(width 0.12)
			(type solid)
		)
		(layer "F.SilkS")
		(uuid "73c8d7c3-a270-43a2-97d9-770114d5aa66")
	)
	(fp_line
		(start 4.432 0.321)
		(end 5.769 0.321)
		(stroke
			(width 0.12)
			(type solid)
		)
		(layer "F.SilkS")
		(uuid "9981efed-8c41-4380-a98a-d87de6376834")
	)
	(fp_line
		(start 5.1 0.321)
		(end 5.1 2.635)
		(stroke
			(width 0.12)
			(type solid)
		)
		(layer "F.SilkS")
		(uuid "5b8a9ff6-5c0a-4641-8e93-f736382c1873")
	)
	(fp_line
		(start 5.25 -4.62)
		(end 5.25 -1.861)
		(stroke
			(width 0.12)
			(type solid)
		)
		(layer "F.SilkS")
		(uuid "f33ab0d2-dc0b-4090-891c-eee11496f295")
	)
	(fp_line
		(start 7.832 0.321)
		(end 8.65 0.321)
		(stroke
			(width 0.12)
			(type solid)
		)
		(layer "F.SilkS")
		(uuid "416018c0-f0fa-4abb-9620-43267929719f")
	)
	(fp_line
		(start 8.65 -4.62)
		(end 8.65 0.321)
		(stroke
			(width 0.12)
			(type solid)
		)
		(layer "F.SilkS")
		(uuid "7e8db13e-f5d7-42d8-8132-06f5819aff03")
	)
	(fp_line
		(start -1.98 -4.75)
		(end -1.98 4.85)
		(stroke
			(width 0.05)
			(type solid)
		)
		(layer "F.CrtYd")
		(uuid "6ddbf676-4b65-4cbd-8cd2-f17eb3567f33")
	)
	(fp_line
		(start -1.98 4.85)
		(end 8.78 4.85)
		(stroke
			(width 0.05)
			(type solid)
		)
		(layer "F.CrtYd")
		(uuid "f2a6a1ae-6006-4a13-a1fc-19829cdc8d1b")
	)
	(fp_line
		(start 8.78 -4.75)
		(end -1.98 -4.75)
		(stroke
			(width 0.05)
			(type solid)
		)
		(layer "F.CrtYd")
		(uuid "67f4eee4-3e4f-4509-9d13-81635f9f656b")
	)
	(fp_line
		(start 8.78 4.85)
		(end 8.78 -4.75)
		(stroke
			(width 0.05)
			(type solid)
		)
		(layer "F.CrtYd")
		(uuid "ab694495-9e71-4ebb-9ab7-ff3f2e421a6f")
	)
	(fp_line
		(start -1.73 -4.5)
		(end -1.73 0.2)
		(stroke
			(width 0.1)
			(type solid)
		)
		(layer "F.Fab")
		(uuid "e3aaaff0-f29b-4566-b6b6-3a6242dcfea7")
	)
	(fp_line
		(start -1.73 -1.98)
		(end 8.53 -1.98)
		(stroke
			(width 0.1)
			(type solid)
		)
		(layer "F.Fab")
		(uuid "2d8bf667-2959-4094-ba2f-bcdcdd417f82")
	)
	(fp_line
		(start -1.73 0.2)
		(end 8.53 0.2)
		(stroke
			(width 0.1)
			(type solid)
		)
		(layer "F.Fab")
		(uuid "4ce17b1d-94ec-4fac-a97c-9e7975137017")
	)
	(fp_line
		(start 1.55 -4.5)
		(end 1.55 -1.98)
		(stroke
			(width 0.1)
			(type solid)
		)
		(layer "F.Fab")
		(uuid "8d59f90e-4ccc-4ebb-888e-3e5e57dafb08")
	)
	(fp_line
		(start 1.7 0.2)
		(end 1.7 3.7)
		(stroke
			(width 0.1)
			(type solid)
		)
		(layer "F.Fab")
		(uuid "968d5d80-48c0-457e-aec9-bf647a715e56")
	)
	(fp_line
		(start 5.1 0.2)
		(end 5.1 3.7)
		(stroke
			(width 0.1)
			(type solid)
		)
		(layer "F.Fab")
		(uuid "97ce873b-ce8a-42c6-be56-e8e2b958694a")
	)
	(fp_line
		(start 5.25 -4.5)
		(end 5.25 -1.98)
		(stroke
			(width 0.1)
			(type solid)
		)
		(layer "F.Fab")
		(uuid "9ecaaa06-5838-4d35-a4ac-2759ae8badfe")
	)
	(fp_line
		(start 8.53 -4.5)
		(end -1.73 -4.5)
		(stroke
			(width 0.1)
			(type solid)
		)
		(layer "F.Fab")
		(uuid "ba293036-f463-4bf3-b76c-980bec8e0103")
	)
	(fp_line
		(start 8.53 0.2)
		(end 8.53 -4.5)
		(stroke
			(width 0.1)
			(type solid)
		)
		(layer "F.Fab")
		(uuid "b4e2081c-5ced-44e5-955e-91db8501b366")
	)
	(fp_text user "${REFERENCE}"
		(at 3.4 -5.62 0)
		(layer "F.Fab")
		(uuid "ab008654-699e-4374-8899-b82d11edf768")
		(effects
			(font
				(size 1 1)
				(thickness 0.15)
			)
		)
	)
	(pad "1" thru_hole rect
		(at 0 0)
		(size 1.8 1.8)
		(drill 1.2)
		(layers "*.Cu" "*.Mask")
		(remove_unused_layers no)
		(uuid "4fed19cd-fd89-43b8-85ac-448213fa92d9")
	)
	(pad "2" thru_hole oval
		(at 1.7 3.7)
		(size 1.8 1.8)
		(drill 1.2)
		(layers "*.Cu" "*.Mask")
		(remove_unused_layers no)
		(uuid "f7bf68bc-dd6a-4d09-b3e4-ae8f9f324dee")
	)
	(pad "3" thru_hole oval
		(at 3.4 0)
		(size 1.8 1.8)
		(drill 1.2)
		(layers "*.Cu" "*.Mask")
		(remove_unused_layers no)
		(uuid "bc5fc5c1-ee78-4a85-9095-23ca28b76633")
	)
	(pad "4" thru_hole oval
		(at 5.1 3.7)
		(size 1.8 1.8)
		(drill 1.2)
		(layers "*.Cu" "*.Mask")
		(remove_unused_layers no)
		(uuid "a045490f-0a7f-46ed-98a2-90129585a911")
	)
	(pad "5" thru_hole oval
		(at 6.8 0)
		(size 1.8 1.8)
		(drill 1.2)
		(layers "*.Cu" "*.Mask")
		(remove_unused_layers no)
		(uuid "c02a6591-4364-4886-a659-5633dfb498ad")
	)
	(model "${KICAD8_3DMODEL_DIR}/Package_TO_SOT_THT.3dshapes/TO-220F-5_P3.4x3.7mm_StaggerEven_Lead3.5mm_Vertical.wrl"
		(offset
			(xyz 0 0 0)
		)
		(scale
			(xyz 1 1 1)
		)
		(rotate
			(xyz 0 0 0)
		)
	)
)
